traffic_light_controller/simulation/qsim/traffic_light_controller.msim.vcd
$comment
	File created using the following command:
		vcd file traffic_light_controller.msim.vcd -direction
$end
$date
	Mon Mar 31 20:29:16 2025
$end
$version
	ModelSim Version 2020.1
$end
$timescale
	1ps
$end

$scope module traffic_light_controller_vhd_vec_tst $end
$var wire 1 ! car_green $end
$var wire 1 " car_orange $end
$var wire 1 # car_red $end
$var wire 1 $ clk $end
$var wire 1 % ped_green $end
$var wire 1 & ped_red $end
$var wire 1 ' pedestrian_btn $end
$var wire 1 ( reset $end

$scope module i1 $end
$var wire 1 ) gnd $end
$var wire 1 * vcc $end
$var wire 1 + unknown $end
$var wire 1 , devoe $end
$var wire 1 - devclrn $end
$var wire 1 . devpor $end
$var wire 1 / ww_devoe $end
$var wire 1 0 ww_devclrn $end
$var wire 1 1 ww_devpor $end
$var wire 1 2 ww_clk $end
$var wire 1 3 ww_reset $end
$var wire 1 4 ww_pedestrian_btn $end
$var wire 1 5 ww_car_green $end
$var wire 1 6 ww_car_orange $end
$var wire 1 7 ww_car_red $end
$var wire 1 8 ww_ped_red $end
$var wire 1 9 ww_ped_green $end
$var wire 1 : \~QUARTUS_CREATED_ADC1~_CHSEL_bus\ [4] $end
$var wire 1 ; \~QUARTUS_CREATED_ADC1~_CHSEL_bus\ [3] $end
$var wire 1 < \~QUARTUS_CREATED_ADC1~_CHSEL_bus\ [2] $end
$var wire 1 = \~QUARTUS_CREATED_ADC1~_CHSEL_bus\ [1] $end
$var wire 1 > \~QUARTUS_CREATED_ADC1~_CHSEL_bus\ [0] $end
$var wire 1 ? \reset~inputclkctrl_INCLK_bus\ [3] $end
$var wire 1 @ \reset~inputclkctrl_INCLK_bus\ [2] $end
$var wire 1 A \reset~inputclkctrl_INCLK_bus\ [1] $end
$var wire 1 B \reset~inputclkctrl_INCLK_bus\ [0] $end
$var wire 1 C \clk~inputclkctrl_INCLK_bus\ [3] $end
$var wire 1 D \clk~inputclkctrl_INCLK_bus\ [2] $end
$var wire 1 E \clk~inputclkctrl_INCLK_bus\ [1] $end
$var wire 1 F \clk~inputclkctrl_INCLK_bus\ [0] $end
$var wire 1 G \~QUARTUS_CREATED_GND~I_combout\ $end
$var wire 1 H \~QUARTUS_CREATED_UNVM~~busy\ $end
$var wire 1 I \~QUARTUS_CREATED_ADC1~~eoc\ $end
$var wire 1 J \car_green~output_o\ $end
$var wire 1 K \car_orange~output_o\ $end
$var wire 1 L \car_red~output_o\ $end
$var wire 1 M \ped_red~output_o\ $end
$var wire 1 N \ped_green~output_o\ $end
$var wire 1 O \clk~input_o\ $end
$var wire 1 P \clk~inputclkctrl_outclk\ $end
$var wire 1 Q \pedestrian_btn~input_o\ $end
$var wire 1 R \state~9_combout\ $end
$var wire 1 S \reset~input_o\ $end
$var wire 1 T \reset~inputclkctrl_outclk\ $end
$var wire 1 U \state.cars_orange~q\ $end
$var wire 1 V \state.cars_red~feeder_combout\ $end
$var wire 1 W \state.cars_red~q\ $end
$var wire 1 X \Selector0~0_combout\ $end
$var wire 1 Y \state.cars_green~q\ $end
$var wire 1 Z \ALT_INV_reset~inputclkctrl_outclk\ $end
$var wire 1 [ \ALT_INV_state.cars_red~q\ $end
$var wire 1 \ \ALT_INV_state.cars_green~q\ $end
$upscope $end
$upscope $end
$enddefinitions $end
#0
$dumpvars
1!
0"
0#
0$
0%
1&
0'
1(
0)
1*
x+
1,
1-
1.
1/
10
11
02
13
04
15
06
07
18
09
0G
zH
zI
1J
0K
0L
1M
0N
0O
0P
0Q
0R
1S
1T
0U
0V
0W
0X
0Y
0Z
1[
1\
1C
1D
1E
0F
1?
1@
1A
1B
0:
0;
0<
0=
0>
$end
#10000
0(
03
0S
0B
0T
1Z
#15000
1$
12
1O
1F
1P
#20000
0$
02
0O
0F
0P
#50000
1'
14
1Q
1R
1X
#55000
1$
12
1O
1F
1P
1U
1Y
0\
1K
0R
1V
0J
16
05
1"
0!
#60000
0$
0'
02
04
0Q
0O
0F
0P
#90000
1'
14
1Q
#95000
1$
12
1O
1F
1P
0U
1W
0[
1L
1N
0K
0X
0V
0M
17
19
06
08
1#
1%
0"
0&
#100000
0$
0'
02
04
0Q
0O
0F
0P
#135000
1$
12
1O
1F
1P
0W
0Y
1\
1[
0L
0N
1M
1J
07
09
18
15
0#
0%
1&
1!
#140000
0$
02
0O
0F
0P
