d_flip_flop_8bit/simulation/qsim/d_flip_flop_8bit.msim.vcd
$comment
	File created using the following command:
		vcd file d_flip_flop_8bit.msim.vcd -direction
$end
$date
	Wed Mar 19 12:32:00 2025
$end
$version
	ModelSim Version 2020.1
$end
$timescale
	1ps
$end

$scope module d_flip_flop_8bit_vhd_vec_tst $end
$var wire 1 ! Clock $end
$var wire 1 " D [5] $end
$var wire 1 # D [4] $end
$var wire 1 $ D [3] $end
$var wire 1 % D [2] $end
$var wire 1 & D [1] $end
$var wire 1 ' D [0] $end
$var wire 1 ( Q [5] $end
$var wire 1 ) Q [4] $end
$var wire 1 * Q [3] $end
$var wire 1 + Q [2] $end
$var wire 1 , Q [1] $end
$var wire 1 - Q [0] $end
$var wire 1 . Reset $end

$scope module i1 $end
$var wire 1 / gnd $end
$var wire 1 0 vcc $end
$var wire 1 1 unknown $end
$var wire 1 2 devoe $end
$var wire 1 3 devclrn $end
$var wire 1 4 devpor $end
$var wire 1 5 ww_devoe $end
$var wire 1 6 ww_devclrn $end
$var wire 1 7 ww_devpor $end
$var wire 1 8 ww_D [5] $end
$var wire 1 9 ww_D [4] $end
$var wire 1 : ww_D [3] $end
$var wire 1 ; ww_D [2] $end
$var wire 1 < ww_D [1] $end
$var wire 1 = ww_D [0] $end
$var wire 1 > ww_Clock $end
$var wire 1 ? ww_Reset $end
$var wire 1 @ ww_Q [5] $end
$var wire 1 A ww_Q [4] $end
$var wire 1 B ww_Q [3] $end
$var wire 1 C ww_Q [2] $end
$var wire 1 D ww_Q [1] $end
$var wire 1 E ww_Q [0] $end
$var wire 1 F \~QUARTUS_CREATED_ADC1~_CHSEL_bus\ [4] $end
$var wire 1 G \~QUARTUS_CREATED_ADC1~_CHSEL_bus\ [3] $end
$var wire 1 H \~QUARTUS_CREATED_ADC1~_CHSEL_bus\ [2] $end
$var wire 1 I \~QUARTUS_CREATED_ADC1~_CHSEL_bus\ [1] $end
$var wire 1 J \~QUARTUS_CREATED_ADC1~_CHSEL_bus\ [0] $end
$var wire 1 K \Clock~inputclkctrl_INCLK_bus\ [3] $end
$var wire 1 L \Clock~inputclkctrl_INCLK_bus\ [2] $end
$var wire 1 M \Clock~inputclkctrl_INCLK_bus\ [1] $end
$var wire 1 N \Clock~inputclkctrl_INCLK_bus\ [0] $end
$var wire 1 O \~QUARTUS_CREATED_GND~I_combout\ $end
$var wire 1 P \~QUARTUS_CREATED_UNVM~~busy\ $end
$var wire 1 Q \~QUARTUS_CREATED_ADC1~~eoc\ $end
$var wire 1 R \Q[0]~output_o\ $end
$var wire 1 S \Q[1]~output_o\ $end
$var wire 1 T \Q[2]~output_o\ $end
$var wire 1 U \Q[3]~output_o\ $end
$var wire 1 V \Q[4]~output_o\ $end
$var wire 1 W \Q[5]~output_o\ $end
$var wire 1 X \Clock~input_o\ $end
$var wire 1 Y \Clock~inputclkctrl_outclk\ $end
$var wire 1 Z \D[0]~input_o\ $end
$var wire 1 [ \Q[0]~reg0feeder_combout\ $end
$var wire 1 \ \Reset~input_o\ $end
$var wire 1 ] \Q[0]~reg0_q\ $end
$var wire 1 ^ \D[1]~input_o\ $end
$var wire 1 _ \Q[1]~reg0_q\ $end
$var wire 1 ` \D[2]~input_o\ $end
$var wire 1 a \Q[2]~reg0feeder_combout\ $end
$var wire 1 b \Q[2]~reg0_q\ $end
$var wire 1 c \D[3]~input_o\ $end
$var wire 1 d \Q[3]~reg0_q\ $end
$var wire 1 e \D[4]~input_o\ $end
$var wire 1 f \Q[4]~reg0feeder_combout\ $end
$var wire 1 g \Q[4]~reg0_q\ $end
$var wire 1 h \D[5]~input_o\ $end
$var wire 1 i \Q[5]~reg0feeder_combout\ $end
$var wire 1 j \Q[5]~reg0_q\ $end
$var wire 1 k \ALT_INV_Clock~inputclkctrl_outclk\ $end
$var wire 1 l \ALT_INV_Reset~input_o\ $end
$upscope $end
$upscope $end
$enddefinitions $end
#0
$dumpvars
0!
0.
0/
10
x1
12
13
14
15
16
17
0>
0?
0O
zP
zQ
0R
0S
0T
0U
0V
0W
0X
0Y
0Z
0[
0\
0]
0^
0_
0`
0a
0b
0c
0d
0e
0f
0g
0h
0i
0j
1k
1l
0"
0#
0$
0%
0&
0'
0(
0)
0*
0+
0,
0-
08
09
0:
0;
0<
0=
0@
0A
0B
0C
0D
0E
1K
1L
1M
0N
0F
0G
0H
0I
0J
$end
#100000
x!
x"
x#
x$
x%
x&
x'
1.
x>
x=
x<
x;
x:
x9
x8
1?
1\
xh
xe
xc
x`
x^
xZ
xX
0l
xN
x[
xa
xf
xi
xY
xk
#120000
0!
0"
0#
0$
0%
0&
0'
0.
0>
0=
0<
0;
0:
09
08
0?
0\
0h
0e
0c
0`
0^
0Z
0X
1l
0N
0[
0a
0f
0i
0Y
1k
#170000
1!
1"
1$
1&
1>
1<
1:
18
1h
1c
1^
1X
1N
1i
1Y
0k
#180000
0!
0"
0$
0&
0>
0<
0:
08
0h
0c
0^
0X
0N
0i
0Y
1k
#220000
1#
1%
1'
1=
1;
19
1e
1`
1Z
1[
1a
1f
#227500
1!
1>
1X
1N
1Y
0k
#235000
0!
0>
0X
0N
0Y
1k
1]
1b
1g
1V
1T
1R
1A
1C
1E
1-
1+
1)
#240000
0#
0%
0'
0=
0;
09
0e
0`
0Z
0[
0a
0f
#300000
1#
1%
1'
1"
1$
1&
1=
1<
1;
1:
19
18
1h
1e
1c
1`
1^
1Z
1[
1a
1f
1i
#310000
1!
1>
1X
1N
1Y
0k
#320000
0!
0#
0%
0'
0"
0$
0&
0>
0=
0<
0;
0:
09
08
0h
0e
0c
0`
0^
0Z
0X
0N
0[
0a
0f
0i
0Y
1k
0]
0b
0g
0V
0T
0R
0A
0C
0E
0-
0+
0)
#400000
x!
1.
x>
1?
1\
xX
0l
xN
xY
xk
#420000
0!
0.
0>
0?
0\
0X
1l
0N
0Y
1k
#480000
1'
1=
1Z
1[
#490000
1!
1>
1X
1N
1Y
0k
#500000
0!
0'
0>
0=
0Z
0X
0N
0[
0Y
1k
