mux_4to1/simulation/qsim/mux_4to1.msim.vcd
$comment
	File created using the following command:
		vcd file mux_4to1.msim.vcd -direction
$end
$date
	Thu Mar 06 13:32:04 2025
$end
$version
	ModelSim Version 2020.1
$end
$timescale
	1ps
$end

$scope module demux_1to4_vhd_vec_tst $end
$var wire 1 ! D $end
$var wire 1 " S [1] $end
$var wire 1 # S [0] $end
$var wire 1 $ Y0 $end
$var wire 1 % Y1 $end
$var wire 1 & Y2 $end
$var wire 1 ' Y3 $end

$scope module i1 $end
$var wire 1 ( gnd $end
$var wire 1 ) vcc $end
$var wire 1 * unknown $end
$var wire 1 + devoe $end
$var wire 1 , devclrn $end
$var wire 1 - devpor $end
$var wire 1 . ww_devoe $end
$var wire 1 / ww_devclrn $end
$var wire 1 0 ww_devpor $end
$var wire 1 1 ww_D $end
$var wire 1 2 ww_S [1] $end
$var wire 1 3 ww_S [0] $end
$var wire 1 4 ww_Y0 $end
$var wire 1 5 ww_Y1 $end
$var wire 1 6 ww_Y2 $end
$var wire 1 7 ww_Y3 $end
$var wire 1 8 \~QUARTUS_CREATED_ADC1~_CHSEL_bus\ [4] $end
$var wire 1 9 \~QUARTUS_CREATED_ADC1~_CHSEL_bus\ [3] $end
$var wire 1 : \~QUARTUS_CREATED_ADC1~_CHSEL_bus\ [2] $end
$var wire 1 ; \~QUARTUS_CREATED_ADC1~_CHSEL_bus\ [1] $end
$var wire 1 < \~QUARTUS_CREATED_ADC1~_CHSEL_bus\ [0] $end
$var wire 1 = \~QUARTUS_CREATED_GND~I_combout\ $end
$var wire 1 > \~QUARTUS_CREATED_UNVM~~busy\ $end
$var wire 1 ? \~QUARTUS_CREATED_ADC1~~eoc\ $end
$var wire 1 @ \Y0~output_o\ $end
$var wire 1 A \Y1~output_o\ $end
$var wire 1 B \Y2~output_o\ $end
$var wire 1 C \Y3~output_o\ $end
$var wire 1 D \D~input_o\ $end
$var wire 1 E \S[1]~input_o\ $end
$var wire 1 F \S[0]~input_o\ $end
$var wire 1 G \Y0~0_combout\ $end
$var wire 1 H \Y1~0_combout\ $end
$var wire 1 I \Y2~0_combout\ $end
$var wire 1 J \Y3~0_combout\ $end
$upscope $end
$upscope $end
$enddefinitions $end
#0
$dumpvars
0!
0$
0%
0&
0'
0(
1)
x*
1+
1,
1-
1.
1/
10
01
04
05
06
07
0=
z>
z?
0@
0A
0B
0C
0D
0E
0F
0G
0H
0I
0J
0"
0#
02
03
08
09
0:
0;
0<
$end
#40000
1!
11
1D
1G
1@
14
1$
#60000
0!
01
0D
0G
0@
04
0$
#80000
1!
1#
11
13
1F
1D
1H
1A
15
1%
#100000
0!
0#
01
03
0F
0D
0H
0A
05
0%
#140000
1!
1"
11
12
1E
1D
1I
1B
16
1&
#160000
0!
0"
01
02
0E
0D
0I
0B
06
0&
#200000
1!
1"
1#
11
13
12
1E
1F
1D
1J
1C
17
1'
#220000
0!
0"
0#
01
03
02
0E
0F
0D
0J
0C
07
0'
#300000
1#
13
1F
#320000
0#
03
0F
#340000
1#
1"
13
12
1E
1F
#360000
0#
0"
03
02
0E
0F
#380000
1"
12
1E
#400000
0"
02
0E
