seven_segment_display/simulation/qsim/seven_segment_display.msim.vcd
$comment
	File created using the following command:
		vcd file seven_segment_display.msim.vcd -direction
$end
$date
	Tue Mar 04 13:32:22 2025
$end
$version
	ModelSim Version 2020.1
$end
$timescale
	1ps
$end

$scope module even_parity_checker_vhd_vec_tst $end
$var wire 1 ! A [3] $end
$var wire 1 " A [2] $end
$var wire 1 # A [1] $end
$var wire 1 $ A [0] $end
$var wire 1 % Parity_Out $end

$scope module i1 $end
$var wire 1 & gnd $end
$var wire 1 ' vcc $end
$var wire 1 ( unknown $end
$var wire 1 ) devoe $end
$var wire 1 * devclrn $end
$var wire 1 + devpor $end
$var wire 1 , ww_devoe $end
$var wire 1 - ww_devclrn $end
$var wire 1 . ww_devpor $end
$var wire 1 / ww_A [3] $end
$var wire 1 0 ww_A [2] $end
$var wire 1 1 ww_A [1] $end
$var wire 1 2 ww_A [0] $end
$var wire 1 3 ww_Parity_Out $end
$var wire 1 4 \~QUARTUS_CREATED_ADC1~_CHSEL_bus\ [4] $end
$var wire 1 5 \~QUARTUS_CREATED_ADC1~_CHSEL_bus\ [3] $end
$var wire 1 6 \~QUARTUS_CREATED_ADC1~_CHSEL_bus\ [2] $end
$var wire 1 7 \~QUARTUS_CREATED_ADC1~_CHSEL_bus\ [1] $end
$var wire 1 8 \~QUARTUS_CREATED_ADC1~_CHSEL_bus\ [0] $end
$var wire 1 9 \~QUARTUS_CREATED_GND~I_combout\ $end
$var wire 1 : \~QUARTUS_CREATED_UNVM~~busy\ $end
$var wire 1 ; \~QUARTUS_CREATED_ADC1~~eoc\ $end
$var wire 1 < \Parity_Out~output_o\ $end
$var wire 1 = \A[3]~input_o\ $end
$var wire 1 > \A[0]~input_o\ $end
$var wire 1 ? \A[1]~input_o\ $end
$var wire 1 @ \A[2]~input_o\ $end
$var wire 1 A \Parity_Out~0_combout\ $end
$upscope $end
$upscope $end
$enddefinitions $end
#0
$dumpvars
0%
0&
1'
x(
1)
1*
1+
1,
1-
1.
03
09
z:
z;
0<
0=
0>
0?
0@
0A
0!
0"
0#
0$
0/
00
01
02
04
05
06
07
08
$end
#40000
1$
12
1>
1A
1<
13
1%
#60000
0$
1#
02
11
1?
0>
#80000
0#
01
0?
0A
0<
03
0%
#100000
1#
1$
12
11
1?
1>
#120000
0#
0$
02
01
0?
0>
#140000
1"
10
1@
1A
1<
13
1%
#160000
0"
00
0@
0A
0<
03
0%
#180000
1"
1$
12
10
1@
1>
#200000
0"
0$
02
00
0@
0>
#220000
1"
1#
11
10
1@
1?
#240000
0"
0#
01
00
0@
0?
#260000
1"
1#
1$
12
11
10
1@
1?
1>
1A
1<
13
1%
#280000
0"
0#
0$
02
01
00
0@
0?
0>
0A
0<
03
0%
#300000
1!
1/
1=
1A
1<
13
1%
#320000
0!
0/
0=
0A
0<
03
0%
#340000
1!
1$
12
1/
1=
1>
#360000
0!
0$
02
0/
0=
0>
#380000
1!
1#
11
1/
1=
1?
#400000
0!
0#
01
0/
0=
0?
#420000
1!
1#
1$
12
11
1/
1=
1?
1>
1A
1<
13
1%
#440000
0!
0#
0$
02
01
0/
0=
0?
0>
0A
0<
03
0%
#480000
1!
1"
10
1/
1=
1@
#500000
0!
0"
00
0/
0=
0@
#540000
1!
1"
1$
12
10
1/
1=
1@
1>
1A
1<
13
1%
#560000
0!
0"
0$
02
00
0/
0=
0@
0>
0A
0<
03
0%
#580000
1!
1"
1#
11
10
1/
1=
1@
1?
1A
1<
13
1%
#600000
0!
0"
0#
01
00
0/
0=
0@
0?
0A
0<
03
0%
#640000
1!
1"
1#
1$
12
11
10
1/
1=
1@
1?
1>
#660000
0!
0"
0#
0$
02
01
00
0/
0=
0@
0?
0>
