week1/simulation/qsim/week1.msim.vcd
$comment
	File created using the following command:
		vcd file week1.msim.vcd -direction
$end
$date
	Mon Feb 10 11:55:41 2025
$end
$version
	ModelSim Version 2020.1
$end
$timescale
	1ps
$end

$scope module week1_vhd_vec_tst $end
$var wire 1 ! a0 $end
$var wire 1 " a1 $end
$var wire 1 # b0 $end
$var wire 1 $ b1 $end
$var wire 1 % carry $end
$var wire 1 & sum0 $end
$var wire 1 ' sum1 $end

$scope module i1 $end
$var wire 1 ( gnd $end
$var wire 1 ) vcc $end
$var wire 1 * unknown $end
$var wire 1 + devoe $end
$var wire 1 , devclrn $end
$var wire 1 - devpor $end
$var wire 1 . ww_devoe $end
$var wire 1 / ww_devclrn $end
$var wire 1 0 ww_devpor $end
$var wire 1 1 ww_a0 $end
$var wire 1 2 ww_a1 $end
$var wire 1 3 ww_b0 $end
$var wire 1 4 ww_b1 $end
$var wire 1 5 ww_sum0 $end
$var wire 1 6 ww_sum1 $end
$var wire 1 7 ww_carry $end
$var wire 1 8 \sum0~output_o\ $end
$var wire 1 9 \sum1~output_o\ $end
$var wire 1 : \carry~output_o\ $end
$var wire 1 ; \a0~input_o\ $end
$var wire 1 < \b0~input_o\ $end
$var wire 1 = \sum0~0_combout\ $end
$var wire 1 > \a1~input_o\ $end
$var wire 1 ? \b1~input_o\ $end
$var wire 1 @ \sum1~0_combout\ $end
$var wire 1 A \carry~0_combout\ $end
$upscope $end
$upscope $end
$enddefinitions $end
#0
$dumpvars
0!
0"
0#
0$
0%
0&
0'
0(
1)
x*
1+
1,
1-
1.
1/
10
01
02
03
04
05
06
07
08
09
0:
0;
0<
0=
0>
0?
0@
0A
$end
#20000
1!
11
1;
1=
18
15
1&
#40000
0!
1"
01
12
1>
0;
0=
1@
19
08
16
05
1'
0&
#60000
0"
1#
02
13
1<
0>
1=
0@
09
18
06
15
0'
1&
#80000
0#
1$
03
14
1?
0<
0=
1@
19
08
16
05
1'
0&
#100000
0$
1"
1!
04
12
11
1;
1>
0?
1=
18
15
1&
#120000
0"
0!
02
01
0;
0>
0=
0@
09
08
06
05
0'
0&
#140000
1"
1!
1#
12
11
13
1<
1;
1>
1A
1:
17
1%
#160000
0"
0!
0#
02
01
03
0<
0;
0>
0A
0:
07
0%
#200000
1"
1!
1#
1$
12
11
13
14
1?
1<
1;
1>
1@
1A
1:
19
17
16
1%
1'
#220000
0"
0!
0#
0$
02
01
03
04
0?
0<
0;
0>
0@
0A
0:
09
07
06
0%
0'
#280000
1#
1$
13
14
1?
1<
1=
1@
19
18
16
15
1'
1&
#300000
0#
0$
03
04
0?
0<
0=
0@
09
08
06
05
0'
0&
#360000
1#
1$
1"
13
14
12
1>
1?
1<
1=
1A
1:
18
17
15
1%
1&
#400000
0#
0$
0"
03
04
02
0>
0?
0<
0=
0A
0:
08
07
05
0%
0&
#440000
1#
1"
13
12
1>
1<
1=
1@
19
18
16
15
1'
1&
#460000
0#
0"
03
02
0>
0<
0=
0@
09
08
06
05
0'
0&
#500000
1$
1!
14
11
1;
1?
1=
1@
19
18
16
15
1'
1&
#520000
0$
0!
04
01
0;
0?
0=
0@
09
08
06
05
0'
0&
